%YAML 1.1
%TAG !u! tag:unity3d.com,2011:
--- !u!1 &232679115549780163
GameObject:
  m_ObjectHideFlags: 0
  m_CorrespondingSourceObject: {fileID: 0}
  m_PrefabInstance: {fileID: 0}
  m_PrefabAsset: {fileID: 0}
  serializedVersion: 6
  m_Component:
  - component: {fileID: 9169270145155962810}
  - component: {fileID: 7913490167119137064}
  - component: {fileID: 3009677246508296007}
  - component: {fileID: 141164809135385146}
  m_Layer: 31
  m_Name: Trigger(Clone)
  m_TagString: Untagged
  m_Icon: {fileID: 7422848464349959988, guid: 0000000000000000d000000000000000, type: 0}
  m_NavMeshLayer: 0
  m_StaticEditorFlags: 0
  m_IsActive: 1
--- !u!4 &9169270145155962810
Transform:
  m_ObjectHideFlags: 0
  m_CorrespondingSourceObject: {fileID: 0}
  m_PrefabInstance: {fileID: 0}
  m_PrefabAsset: {fileID: 0}
  m_GameObject: {fileID: 232679115549780163}
  m_LocalRotation: {x: -0, y: -0, z: -0, w: 1}
  m_LocalPosition: {x: 3.5, y: 0.5, z: 0}
  m_LocalScale: {x: 1, y: 1, z: 1}
  m_Children: []
  m_Father: {fileID: 6018719740850199984}
  m_RootOrder: 2
  m_LocalEulerAnglesHint: {x: 0, y: 0, z: 0}
--- !u!114 &7913490167119137064
MonoBehaviour:
  m_ObjectHideFlags: 0
  m_CorrespondingSourceObject: {fileID: 0}
  m_PrefabInstance: {fileID: 0}
  m_PrefabAsset: {fileID: 0}
  m_GameObject: {fileID: 232679115549780163}
  m_Enabled: 1
  m_EditorHideFlags: 0
  m_Script: {fileID: 11500000, guid: 0017573750ef95a4fa83e42c92866476, type: 3}
  m_Name: 
  m_EditorClassIdentifier: 
  onTrigger:
    m_PersistentCalls:
      m_Calls: []
  layerMask:
    serializedVersion: 2
    m_Bits: 8
--- !u!114 &3009677246508296007
MonoBehaviour:
  m_ObjectHideFlags: 0
  m_CorrespondingSourceObject: {fileID: 0}
  m_PrefabInstance: {fileID: 0}
  m_PrefabAsset: {fileID: 0}
  m_GameObject: {fileID: 232679115549780163}
  m_Enabled: 1
  m_EditorHideFlags: 0
  m_Script: {fileID: 11500000, guid: da9a9f30d253b2f41a251a526d294c28, type: 3}
  m_Name: 
  m_EditorClassIdentifier: 
  color: {r: 0, g: 1, b: 0.9905875, a: 1}
  size: {x: 1, y: 1, z: 1}
--- !u!61 &141164809135385146
BoxCollider2D:
  m_ObjectHideFlags: 0
  m_CorrespondingSourceObject: {fileID: 0}
  m_PrefabInstance: {fileID: 0}
  m_PrefabAsset: {fileID: 0}
  m_GameObject: {fileID: 232679115549780163}
  m_Enabled: 1
  m_Density: 1
  m_Material: {fileID: 0}
  m_IsTrigger: 1
  m_UsedByEffector: 0
  m_UsedByComposite: 0
  m_Offset: {x: 0, y: 0}
  m_SpriteTilingProperty:
    border: {x: 0, y: 0, z: 0, w: 0}
    pivot: {x: 0, y: 0}
    oldSize: {x: 0, y: 0}
    newSize: {x: 0, y: 0}
    adaptiveTilingThreshold: 0
    drawMode: 0
    adaptiveTiling: 0
  m_AutoTiling: 0
  serializedVersion: 2
  m_Size: {x: 1, y: 1}
  m_EdgeRadius: 0
--- !u!1 &989199518420953324
GameObject:
  m_ObjectHideFlags: 0
  m_CorrespondingSourceObject: {fileID: 0}
  m_PrefabInstance: {fileID: 0}
  m_PrefabAsset: {fileID: 0}
  serializedVersion: 6
  m_Component:
  - component: {fileID: 2287805522492837297}
  - component: {fileID: 289451886998253073}
  m_Layer: 31
  m_Name: TopDown
  m_TagString: Untagged
  m_Icon: {fileID: 0}
  m_NavMeshLayer: 0
  m_StaticEditorFlags: 0
  m_IsActive: 1
--- !u!4 &2287805522492837297
Transform:
  m_ObjectHideFlags: 0
  m_CorrespondingSourceObject: {fileID: 0}
  m_PrefabInstance: {fileID: 0}
  m_PrefabAsset: {fileID: 0}
  m_GameObject: {fileID: 989199518420953324}
  m_LocalRotation: {x: 0, y: 0, z: 0, w: 1}
  m_LocalPosition: {x: 0, y: 0, z: 0}
  m_LocalScale: {x: 1, y: 1, z: 1}
  m_Children:
  - {fileID: 6018719740850199984}
  m_Father: {fileID: 0}
  m_RootOrder: 0
  m_LocalEulerAnglesHint: {x: 0, y: 0, z: 0}
--- !u!156049354 &289451886998253073
Grid:
  m_ObjectHideFlags: 0
  m_CorrespondingSourceObject: {fileID: 0}
  m_PrefabInstance: {fileID: 0}
  m_PrefabAsset: {fileID: 0}
  m_GameObject: {fileID: 989199518420953324}
  m_Enabled: 1
  m_CellSize: {x: 0.16, y: 0.16, z: 0}
  m_CellGap: {x: 0, y: 0, z: 0}
  m_CellLayout: 0
  m_CellSwizzle: 0
--- !u!1 &1657923896969900958
GameObject:
  m_ObjectHideFlags: 0
  m_CorrespondingSourceObject: {fileID: 0}
  m_PrefabInstance: {fileID: 0}
  m_PrefabAsset: {fileID: 0}
  serializedVersion: 6
  m_Component:
  - component: {fileID: 8594678246417466540}
  - component: {fileID: 1941522042063611265}
  - component: {fileID: 8951476016393665485}
  - component: {fileID: 1951333940943757295}
  m_Layer: 31
  m_Name: DeathZone(Clone)
  m_TagString: Untagged
  m_Icon: {fileID: -5442936267250999957, guid: 0000000000000000d000000000000000, type: 0}
  m_NavMeshLayer: 0
  m_StaticEditorFlags: 0
  m_IsActive: 1
--- !u!4 &8594678246417466540
Transform:
  m_ObjectHideFlags: 0
  m_CorrespondingSourceObject: {fileID: 0}
  m_PrefabInstance: {fileID: 0}
  m_PrefabAsset: {fileID: 0}
  m_GameObject: {fileID: 1657923896969900958}
  m_LocalRotation: {x: -0, y: -0, z: -0, w: 1}
  m_LocalPosition: {x: -0.5, y: 0.5, z: 0}
  m_LocalScale: {x: 1, y: 1, z: 1}
  m_Children: []
  m_Father: {fileID: 6018719740850199984}
  m_RootOrder: 0
  m_LocalEulerAnglesHint: {x: 0, y: 0, z: 0}
--- !u!61 &1941522042063611265
BoxCollider2D:
  m_ObjectHideFlags: 0
  m_CorrespondingSourceObject: {fileID: 0}
  m_PrefabInstance: {fileID: 0}
  m_PrefabAsset: {fileID: 0}
  m_GameObject: {fileID: 1657923896969900958}
  m_Enabled: 1
  m_Density: 1
  m_Material: {fileID: 0}
  m_IsTrigger: 1
  m_UsedByEffector: 0
  m_UsedByComposite: 0
  m_Offset: {x: 0, y: 0}
  m_SpriteTilingProperty:
    border: {x: 0, y: 0, z: 0, w: 0}
    pivot: {x: 0.5, y: 0.5}
    oldSize: {x: 1, y: 1}
    newSize: {x: 1, y: 1}
    adaptiveTilingThreshold: 0.5
    drawMode: 0
    adaptiveTiling: 0
  m_AutoTiling: 0
  serializedVersion: 2
  m_Size: {x: 1, y: 1}
  m_EdgeRadius: 0
--- !u!114 &8951476016393665485
MonoBehaviour:
  m_ObjectHideFlags: 0
  m_CorrespondingSourceObject: {fileID: 0}
  m_PrefabInstance: {fileID: 0}
  m_PrefabAsset: {fileID: 0}
  m_GameObject: {fileID: 1657923896969900958}
  m_Enabled: 1
  m_EditorHideFlags: 0
  m_Script: {fileID: 11500000, guid: 33488a53a3961ca459c25d7ac3241545, type: 3}
  m_Name: 
  m_EditorClassIdentifier: 
--- !u!114 &1951333940943757295
MonoBehaviour:
  m_ObjectHideFlags: 0
  m_CorrespondingSourceObject: {fileID: 0}
  m_PrefabInstance: {fileID: 0}
  m_PrefabAsset: {fileID: 0}
  m_GameObject: {fileID: 1657923896969900958}
  m_Enabled: 1
  m_EditorHideFlags: 0
  m_Script: {fileID: 11500000, guid: da9a9f30d253b2f41a251a526d294c28, type: 3}
  m_Name: 
  m_EditorClassIdentifier: 
  color: {r: 1, g: 0, b: 0, a: 1}
  size: {x: 1, y: 1, z: 1}
--- !u!1 &5233156352772381214
GameObject:
  m_ObjectHideFlags: 0
  m_CorrespondingSourceObject: {fileID: 0}
  m_PrefabInstance: {fileID: 0}
  m_PrefabAsset: {fileID: 0}
  serializedVersion: 6
  m_Component:
  - component: {fileID: 6018719740850199984}
  - component: {fileID: 798920434039713264}
  - component: {fileID: 545581385743399550}
  - component: {fileID: 5784046740033340468}
  m_Layer: 0
  m_Name: Layer1
  m_TagString: Untagged
  m_Icon: {fileID: 0}
  m_NavMeshLayer: 0
  m_StaticEditorFlags: 0
  m_IsActive: 1
--- !u!4 &6018719740850199984
Transform:
  m_ObjectHideFlags: 0
  m_CorrespondingSourceObject: {fileID: 0}
  m_PrefabInstance: {fileID: 0}
  m_PrefabAsset: {fileID: 0}
  m_GameObject: {fileID: 5233156352772381214}
  m_LocalRotation: {x: -0, y: -0, z: -0, w: 1}
  m_LocalPosition: {x: 0, y: 0, z: 0}
  m_LocalScale: {x: 1, y: 1, z: 1}
  m_Children:
  - {fileID: 8594678246417466540}
  - {fileID: 3045058954379393345}
  - {fileID: 9169270145155962810}
  - {fileID: 2479872527357001248}
  - {fileID: 7396910963555828950}
  - {fileID: 3303006790341666791}
  - {fileID: 2395764651266280058}
  - {fileID: 5923352253345911708}
  - {fileID: 3571994452178435020}
  - {fileID: 8614232955040427964}
  - {fileID: 7864022678896133749}
  - {fileID: 1697419034201013997}
  - {fileID: 5968286263755055280}
  - {fileID: 5952474272095866628}
  - {fileID: 8399700101798262941}
  - {fileID: 6423838032970216062}
  - {fileID: 2053829352729274591}
  m_Father: {fileID: 2287805522492837297}
  m_RootOrder: 0
  m_LocalEulerAnglesHint: {x: 0, y: 0, z: 0}
--- !u!1839735485 &798920434039713264
Tilemap:
  m_ObjectHideFlags: 0
  m_CorrespondingSourceObject: {fileID: 0}
  m_PrefabInstance: {fileID: 0}
  m_PrefabAsset: {fileID: 0}
  m_GameObject: {fileID: 5233156352772381214}
  m_Enabled: 1
  m_Tiles:
  - first: {x: 6, y: -5, z: 0}
    second:
      serializedVersion: 2
      m_TileIndex: 1
      m_TileSpriteIndex: 3
      m_TileMatrixIndex: 0
      m_TileColorIndex: 0
      m_TileObjectToInstantiateIndex: 65535
      dummyAlignment: 0
      m_AllTileFlags: 3
  - first: {x: -6, y: -4, z: 0}
    second:
      serializedVersion: 2
      m_TileIndex: 5
      m_TileSpriteIndex: 1
      m_TileMatrixIndex: 0
      m_TileColorIndex: 0
      m_TileObjectToInstantiateIndex: 65535
      dummyAlignment: 0
      m_AllTileFlags: 3
  - first: {x: -5, y: -4, z: 0}
    second:
      serializedVersion: 2
      m_TileIndex: 4
      m_TileSpriteIndex: 0
      m_TileMatrixIndex: 0
      m_TileColorIndex: 0
      m_TileObjectToInstantiateIndex: 65535
      dummyAlignment: 0
      m_AllTileFlags: 3
  - first: {x: -4, y: -4, z: 0}
    second:
      serializedVersion: 2
      m_TileIndex: 6
      m_TileSpriteIndex: 4
      m_TileMatrixIndex: 0
      m_TileColorIndex: 0
      m_TileObjectToInstantiateIndex: 65535
      dummyAlignment: 0
      m_AllTileFlags: 3
  - first: {x: 1, y: -4, z: 0}
    second:
      serializedVersion: 2
      m_TileIndex: 1
      m_TileSpriteIndex: 3
      m_TileMatrixIndex: 0
      m_TileColorIndex: 0
      m_TileObjectToInstantiateIndex: 65535
      dummyAlignment: 0
      m_AllTileFlags: 3
  - first: {x: -6, y: -2, z: 0}
    second:
      serializedVersion: 2
      m_TileIndex: 5
      m_TileSpriteIndex: 1
      m_TileMatrixIndex: 0
      m_TileColorIndex: 0
      m_TileObjectToInstantiateIndex: 65535
      dummyAlignment: 0
      m_AllTileFlags: 3
  - first: {x: -5, y: -2, z: 0}
    second:
      serializedVersion: 2
      m_TileIndex: 5
      m_TileSpriteIndex: 1
      m_TileMatrixIndex: 0
      m_TileColorIndex: 0
      m_TileObjectToInstantiateIndex: 65535
      dummyAlignment: 0
      m_AllTileFlags: 3
  - first: {x: 0, y: -2, z: 0}
    second:
      serializedVersion: 2
      m_TileIndex: 5
      m_TileSpriteIndex: 1
      m_TileMatrixIndex: 0
      m_TileColorIndex: 0
      m_TileObjectToInstantiateIndex: 65535
      dummyAlignment: 0
      m_AllTileFlags: 3
  - first: {x: 1, y: -2, z: 0}
    second:
      serializedVersion: 2
      m_TileIndex: 5
      m_TileSpriteIndex: 1
      m_TileMatrixIndex: 0
      m_TileColorIndex: 0
      m_TileObjectToInstantiateIndex: 65535
      dummyAlignment: 0
      m_AllTileFlags: 3
  - first: {x: -6, y: -1, z: 0}
    second:
      serializedVersion: 2
      m_TileIndex: 5
      m_TileSpriteIndex: 1
      m_TileMatrixIndex: 0
      m_TileColorIndex: 0
      m_TileObjectToInstantiateIndex: 65535
      dummyAlignment: 0
      m_AllTileFlags: 3
  - first: {x: -5, y: -1, z: 0}
    second:
      serializedVersion: 2
      m_TileIndex: 5
      m_TileSpriteIndex: 1
      m_TileMatrixIndex: 0
      m_TileColorIndex: 0
      m_TileObjectToInstantiateIndex: 65535
      dummyAlignment: 0
      m_AllTileFlags: 3
  - first: {x: -4, y: -1, z: 0}
    second:
      serializedVersion: 2
      m_TileIndex: 5
      m_TileSpriteIndex: 1
      m_TileMatrixIndex: 0
      m_TileColorIndex: 0
      m_TileObjectToInstantiateIndex: 65535
      dummyAlignment: 0
      m_AllTileFlags: 3
  - first: {x: -3, y: -1, z: 0}
    second:
      serializedVersion: 2
      m_TileIndex: 6
      m_TileSpriteIndex: 4
      m_TileMatrixIndex: 0
      m_TileColorIndex: 0
      m_TileObjectToInstantiateIndex: 65535
      dummyAlignment: 0
      m_AllTileFlags: 3
  - first: {x: -1, y: 0, z: 0}
    second:
      serializedVersion: 2
      m_TileIndex: 0
      m_TileSpriteIndex: 5
      m_TileMatrixIndex: 0
      m_TileColorIndex: 0
      m_TileObjectToInstantiateIndex: 65535
      dummyAlignment: 0
      m_AllTileFlags: 3
  - first: {x: 1, y: 0, z: 0}
    second:
      serializedVersion: 2
      m_TileIndex: 1
      m_TileSpriteIndex: 3
      m_TileMatrixIndex: 0
      m_TileColorIndex: 0
      m_TileObjectToInstantiateIndex: 65535
      dummyAlignment: 0
      m_AllTileFlags: 3
  - first: {x: 3, y: 0, z: 0}
    second:
      serializedVersion: 2
      m_TileIndex: 2
      m_TileSpriteIndex: 2
      m_TileMatrixIndex: 0
      m_TileColorIndex: 0
      m_TileObjectToInstantiateIndex: 65535
      dummyAlignment: 0
      m_AllTileFlags: 3
  - first: {x: 1, y: 1, z: 0}
    second:
      serializedVersion: 2
      m_TileIndex: 3
      m_TileSpriteIndex: 4294967295
      m_TileMatrixIndex: 0
      m_TileColorIndex: 0
      m_TileObjectToInstantiateIndex: 65535
      dummyAlignment: 0
      m_AllTileFlags: 1073741826
  m_AnimatedTiles: {}
  m_TileAssetArray:
  - m_RefCount: 1
    m_Data: {fileID: 11400000, guid: 87221186cf53dff4683f59513c10128d, type: 2}
  - m_RefCount: 3
    m_Data: {fileID: 11400000, guid: d63c8fc486431fc47aa6f5d52aba53fc, type: 2}
  - m_RefCount: 1
    m_Data: {fileID: 11400000, guid: 43b877409b716c14aa359b37cc947867, type: 2}
  - m_RefCount: 1
    m_Data: {fileID: 11400000, guid: 5638e453e2849394381576dc037605d3, type: 2}
  - m_RefCount: 1
    m_Data: {fileID: 11400000, guid: 085815854c038d142a399205f7bc5f38, type: 2}
  - m_RefCount: 8
    m_Data: {fileID: 11400000, guid: 17ecb4bb6e53e2c48aed491e069d9a14, type: 2}
  - m_RefCount: 2
    m_Data: {fileID: 11400000, guid: 1df3be6070d598e49be8a2587ed5c9bd, type: 2}
  m_TileSpriteArray:
  - m_RefCount: 1
    m_Data: {fileID: 10911, guid: 0000000000000000f000000000000000, type: 0}
  - m_RefCount: 8
    m_Data: {fileID: 10907, guid: 0000000000000000f000000000000000, type: 0}
  - m_RefCount: 1
    m_Data: {fileID: 21300000, guid: 891d77a5c56cabb47b5d7080ad87e36c, type: 3}
  - m_RefCount: 3
    m_Data: {fileID: 21300000, guid: 1eb267229329c6142b00090cb89ada73, type: 3}
  - m_RefCount: 2
    m_Data: {fileID: 10913, guid: 0000000000000000f000000000000000, type: 0}
  - m_RefCount: 1
    m_Data: {fileID: 21300000, guid: b39ff0aa16918664093390f1e38b127a, type: 3}
  m_TileMatrixArray:
  - m_RefCount: 17
    m_Data:
      e00: 1
      e01: 0
      e02: 0
      e03: 0
      e10: 0
      e11: 1
      e12: 0
      e13: 0
      e20: 0
      e21: 0
      e22: 1
      e23: 0
      e30: 0
      e31: 0
      e32: 0
      e33: 1
  m_TileColorArray:
  - m_RefCount: 17
    m_Data: {r: 1, g: 1, b: 1, a: 1}
  m_TileObjectToInstantiateArray: []
  m_AnimationFrameRate: 1
  m_Color: {r: 1, g: 1, b: 1, a: 1}
  m_Origin: {x: -6, y: -5, z: 0}
  m_Size: {x: 13, y: 7, z: 1}
  m_TileAnchor: {x: 0.5, y: 0.5, z: 0}
  m_TileOrientation: 0
  m_TileOrientationMatrix:
    e00: 1
    e01: 0
    e02: 0
    e03: 0
    e10: 0
    e11: 1
    e12: 0
    e13: 0
    e20: 0
    e21: 0
    e22: 1
    e23: 0
    e30: 0
    e31: 0
    e32: 0
    e33: 1
--- !u!483693784 &545581385743399550
TilemapRenderer:
  m_ObjectHideFlags: 0
  m_CorrespondingSourceObject: {fileID: 0}
  m_PrefabInstance: {fileID: 0}
  m_PrefabAsset: {fileID: 0}
  m_GameObject: {fileID: 5233156352772381214}
  m_Enabled: 1
  m_CastShadows: 0
  m_ReceiveShadows: 0
  m_DynamicOccludee: 0
  m_MotionVectors: 1
  m_LightProbeUsage: 0
  m_ReflectionProbeUsage: 0
  m_RayTracingMode: 0
  m_RayTraceProcedural: 0
  m_RenderingLayerMask: 1
  m_RendererPriority: 0
  m_Materials:
  - {fileID: 2100000, guid: a97c105638bdf8b4a8650670310a4cd3, type: 2}
  m_StaticBatchInfo:
    firstSubMesh: 0
    subMeshCount: 0
  m_StaticBatchRoot: {fileID: 0}
  m_ProbeAnchor: {fileID: 0}
  m_LightProbeVolumeOverride: {fileID: 0}
  m_ScaleInLightmap: 1
  m_ReceiveGI: 1
  m_PreserveUVs: 0
  m_IgnoreNormalsForChartDetection: 0
  m_ImportantGI: 0
  m_StitchLightmapSeams: 1
  m_SelectedEditorRenderState: 0
  m_MinimumChartSize: 4
  m_AutoUVMaxDistance: 0.5
  m_AutoUVMaxAngle: 89
  m_LightmapParameters: {fileID: 0}
  m_SortingLayerID: 0
  m_SortingLayer: 0
  m_SortingOrder: 0
  m_ChunkSize: {x: 32, y: 32, z: 32}
  m_ChunkCullingBounds: {x: 0, y: 0, z: 0}
  m_MaxChunkCount: 16
  m_MaxFrameAge: 16
  m_SortOrder: 0
  m_Mode: 0
  m_DetectChunkCullingBounds: 0
  m_MaskInteraction: 0
--- !u!114 &5784046740033340468
MonoBehaviour:
  m_ObjectHideFlags: 0
  m_CorrespondingSourceObject: {fileID: 0}
  m_PrefabInstance: {fileID: 0}
  m_PrefabAsset: {fileID: 0}
  m_GameObject: {fileID: 5233156352772381214}
  m_Enabled: 1
  m_EditorHideFlags: 0
  m_Script: {fileID: 11500000, guid: ad297c17749fb4c408c068db0082c232, type: 3}
  m_Name: 
  m_EditorClassIdentifier: 
  prefabs:
  - Prefab: {fileID: 1238764078045534351, guid: 7700ee813908a3441a7e9dcdae689e77, type: 3}
    Instance: {fileID: 1657923896969900958}
    Position: {x: -1, y: 0, z: 0}
    TileBase: {fileID: 11400000, guid: 87221186cf53dff4683f59513c10128d, type: 2}
  - Prefab: {fileID: 849398251704471522, guid: 9f4456036c9a93a499ec2f6c50ef5a44, type: 3}
    Instance: {fileID: 6774665835072835559}
    Position: {x: 1, y: 0, z: 0}
    TileBase: {fileID: 11400000, guid: d63c8fc486431fc47aa6f5d52aba53fc, type: 2}
  - Prefab: {fileID: 1157647942188618083, guid: e533d1025274b7547af463831c1ba8ba, type: 3}
    Instance: {fileID: 232679115549780163}
    Position: {x: 3, y: 0, z: 0}
    TileBase: {fileID: 11400000, guid: 43b877409b716c14aa359b37cc947867, type: 2}
  - Prefab: {fileID: 1157647942188618083, guid: 4919b22a90828ae4c9bf2ebef120548b, type: 3}
    Instance: {fileID: 8507548624639807287}
    Position: {x: -5, y: -1, z: 0}
    TileBase: {fileID: 11400000, guid: 17ecb4bb6e53e2c48aed491e069d9a14, type: 2}
  - Prefab: {fileID: 1157647942188618083, guid: cb3d18c3b116691499554f02c0ddcd1a, type: 3}
    Instance: {fileID: 3665296632920536513}
    Position: {x: -3, y: -1, z: 0}
    TileBase: {fileID: 11400000, guid: 1df3be6070d598e49be8a2587ed5c9bd, type: 2}
  - Prefab: {fileID: 1157647942188618083, guid: 4919b22a90828ae4c9bf2ebef120548b, type: 3}
    Instance: {fileID: 8450393145810877293}
    Position: {x: -5, y: -2, z: 0}
    TileBase: {fileID: 11400000, guid: 17ecb4bb6e53e2c48aed491e069d9a14, type: 2}
  - Prefab: {fileID: 1157647942188618083, guid: 4919b22a90828ae4c9bf2ebef120548b, type: 3}
    Instance: {fileID: 452996553845023371}
    Position: {x: -4, y: -1, z: 0}
    TileBase: {fileID: 11400000, guid: 17ecb4bb6e53e2c48aed491e069d9a14, type: 2}
  - Prefab: {fileID: 1157647942188618083, guid: 4919b22a90828ae4c9bf2ebef120548b, type: 3}
    Instance: {fileID: 7343368291498003163}
    Position: {x: -6, y: -2, z: 0}
    TileBase: {fileID: 11400000, guid: 17ecb4bb6e53e2c48aed491e069d9a14, type: 2}
  - Prefab: {fileID: 1157647942188618083, guid: 4919b22a90828ae4c9bf2ebef120548b, type: 3}
    Instance: {fileID: 2589925688370536107}
    Position: {x: -6, y: -1, z: 0}
    TileBase: {fileID: 11400000, guid: 17ecb4bb6e53e2c48aed491e069d9a14, type: 2}
  - Prefab: {fileID: 1157647942188618083, guid: 4919b22a90828ae4c9bf2ebef120548b, type: 3}
    Instance: {fileID: 4132116964533450594}
    Position: {x: 1, y: -2, z: 0}
    TileBase: {fileID: 11400000, guid: 17ecb4bb6e53e2c48aed491e069d9a14, type: 2}
  - Prefab: {fileID: 1157647942188618083, guid: 4919b22a90828ae4c9bf2ebef120548b, type: 3}
    Instance: {fileID: 4896772979969511418}
    Position: {x: 0, y: -2, z: 0}
    TileBase: {fileID: 11400000, guid: 17ecb4bb6e53e2c48aed491e069d9a14, type: 2}
  - Prefab: {fileID: 849398251704471522, guid: 9f4456036c9a93a499ec2f6c50ef5a44, type: 3}
    Instance: {fileID: 479976643170881959}
    Position: {x: 1, y: -4, z: 0}
    TileBase: {fileID: 11400000, guid: d63c8fc486431fc47aa6f5d52aba53fc, type: 2}
  - Prefab: {fileID: 1157647942188618083, guid: cb3d18c3b116691499554f02c0ddcd1a, type: 3}
    Instance: {fileID: 495901023856295443}
    Position: {x: -4, y: -4, z: 0}
    TileBase: {fileID: 11400000, guid: 1df3be6070d598e49be8a2587ed5c9bd, type: 2}
  - Prefab: {fileID: 1157647942188618083, guid: cb3d18c3b116691499554f02c0ddcd1a, type: 3}
    Instance: {fileID: 2372022853452597642}
    Position: {x: -5, y: -4, z: 0}
    TileBase: {fileID: 11400000, guid: 085815854c038d142a399205f7bc5f38, type: 2}
  - Prefab: {fileID: 1157647942188618083, guid: 4919b22a90828ae4c9bf2ebef120548b, type: 3}
    Instance: {fileID: 962831532639945577}
    Position: {x: -6, y: -4, z: 0}
    TileBase: {fileID: 11400000, guid: 17ecb4bb6e53e2c48aed491e069d9a14, type: 2}
  - Prefab: {fileID: 849398251704471522, guid: 9f4456036c9a93a499ec2f6c50ef5a44, type: 3}
    Instance: {fileID: 5258531323322767816}
    Position: {x: 6, y: -5, z: 0}
    TileBase: {fileID: 11400000, guid: d63c8fc486431fc47aa6f5d52aba53fc, type: 2}
--- !u!1 &6774665835072835559
GameObject:
  m_ObjectHideFlags: 0
  m_CorrespondingSourceObject: {fileID: 0}
  m_PrefabInstance: {fileID: 0}
  m_PrefabAsset: {fileID: 0}
  serializedVersion: 6
  m_Component:
  - component: {fileID: 3045058954379393345}
  - component: {fileID: 3606084852229378112}
  - component: {fileID: 878988653616891571}
  - component: {fileID: 1519368684572306870}
  - component: {fileID: 6682347928643872691}
  m_Layer: 31
  m_Name: CameraShake(Clone)
  m_TagString: Untagged
  m_Icon: {fileID: 7422848464349959988, guid: 0000000000000000d000000000000000, type: 0}
  m_NavMeshLayer: 0
  m_StaticEditorFlags: 0
  m_IsActive: 1
--- !u!4 &3045058954379393345
Transform:
  m_ObjectHideFlags: 0
  m_CorrespondingSourceObject: {fileID: 0}
  m_PrefabInstance: {fileID: 0}
  m_PrefabAsset: {fileID: 0}
  m_GameObject: {fileID: 6774665835072835559}
  m_LocalRotation: {x: -0, y: -0, z: -0, w: 1}
  m_LocalPosition: {x: 1.5, y: 0.5, z: 0}
  m_LocalScale: {x: 1, y: 1, z: 1}
  m_Children: []
  m_Father: {fileID: 6018719740850199984}
  m_RootOrder: 1
  m_LocalEulerAnglesHint: {x: 0, y: 0, z: 0}
--- !u!114 &3606084852229378112
MonoBehaviour:
  m_ObjectHideFlags: 0
  m_CorrespondingSourceObject: {fileID: 0}
  m_PrefabInstance: {fileID: 0}
  m_PrefabAsset: {fileID: 0}
  m_GameObject: {fileID: 6774665835072835559}
  m_Enabled: 1
  m_EditorHideFlags: 0
  m_Script: {fileID: 11500000, guid: 0017573750ef95a4fa83e42c92866476, type: 3}
  m_Name: 
  m_EditorClassIdentifier: 
  onTrigger:
    m_PersistentCalls:
      m_Calls:
      - m_Target: {fileID: 6682347928643872691}
        m_TargetAssemblyTypeName: Cinemachine.CinemachineImpulseSource, Cinemachine
        m_MethodName: GenerateImpulse
        m_Mode: 1
        m_Arguments:
          m_ObjectArgument: {fileID: 0}
          m_ObjectArgumentAssemblyTypeName: UnityEngine.Object, UnityEngine
          m_IntArgument: 0
          m_FloatArgument: 0
          m_StringArgument: 
          m_BoolArgument: 0
        m_CallState: 2
  layerMask:
    serializedVersion: 2
    m_Bits: 8
--- !u!114 &878988653616891571
MonoBehaviour:
  m_ObjectHideFlags: 0
  m_CorrespondingSourceObject: {fileID: 0}
  m_PrefabInstance: {fileID: 0}
  m_PrefabAsset: {fileID: 0}
  m_GameObject: {fileID: 6774665835072835559}
  m_Enabled: 1
  m_EditorHideFlags: 0
  m_Script: {fileID: 11500000, guid: da9a9f30d253b2f41a251a526d294c28, type: 3}
  m_Name: 
  m_EditorClassIdentifier: 
  color: {r: 1, g: 0.9864793, b: 0, a: 1}
  size: {x: 1, y: 1, z: 1}
--- !u!61 &1519368684572306870
BoxCollider2D:
  m_ObjectHideFlags: 0
  m_CorrespondingSourceObject: {fileID: 0}
  m_PrefabInstance: {fileID: 0}
  m_PrefabAsset: {fileID: 0}
  m_GameObject: {fileID: 6774665835072835559}
  m_Enabled: 1
  m_Density: 1
  m_Material: {fileID: 0}
  m_IsTrigger: 1
  m_UsedByEffector: 0
  m_UsedByComposite: 0
  m_Offset: {x: 0, y: 0}
  m_SpriteTilingProperty:
    border: {x: 0, y: 0, z: 0, w: 0}
    pivot: {x: 0, y: 0}
    oldSize: {x: 0, y: 0}
    newSize: {x: 0, y: 0}
    adaptiveTilingThreshold: 0
    drawMode: 0
    adaptiveTiling: 0
  m_AutoTiling: 0
  serializedVersion: 2
  m_Size: {x: 1, y: 1}
  m_EdgeRadius: 0
--- !u!114 &6682347928643872691
MonoBehaviour:
  m_ObjectHideFlags: 0
  m_CorrespondingSourceObject: {fileID: 0}
  m_PrefabInstance: {fileID: 0}
  m_PrefabAsset: {fileID: 0}
  m_GameObject: {fileID: 6774665835072835559}
  m_Enabled: 1
  m_EditorHideFlags: 0
  m_Script: {fileID: 11500000, guid: 180ecf9b41d478f468eb3e9083753217, type: 3}
  m_Name: 
  m_EditorClassIdentifier: 
  m_ImpulseDefinition:
    m_ImpulseChannel: 1
    m_RawSignal: {fileID: 11400000, guid: 285111bdd679d4c40927850d5bb711db, type: 2}
    m_AmplitudeGain: 1
    m_FrequencyGain: 1
    m_RepeatMode: 0
    m_Randomize: 1
    m_TimeEnvelope:
      m_AttackShape:
        serializedVersion: 2
        m_Curve: []
        m_PreInfinity: 2
        m_PostInfinity: 2
        m_RotationOrder: 4
      m_DecayShape:
        serializedVersion: 2
        m_Curve: []
        m_PreInfinity: 2
        m_PostInfinity: 2
        m_RotationOrder: 4
      m_AttackTime: 0
      m_SustainTime: 0.2
      m_DecayTime: 0.7
      m_ScaleWithImpact: 1
      m_HoldForever: 0
    m_ImpactRadius: 100
    m_DirectionMode: 0
    m_DissipationMode: 2
    m_DissipationDistance: 1000
    m_PropagationSpeed: 343
--- !u!1001 &963931963180293701
PrefabInstance:
  m_ObjectHideFlags: 0
  serializedVersion: 2
  m_Modification:
    m_TransformParent: {fileID: 6018719740850199984}
    m_Modifications:
    - target: {fileID: 849398251704471522, guid: 9f4456036c9a93a499ec2f6c50ef5a44, type: 3}
      propertyPath: m_Name
      value: CameraShake
      objectReference: {fileID: 0}
    - target: {fileID: 849398251704471522, guid: 9f4456036c9a93a499ec2f6c50ef5a44, type: 3}
      propertyPath: m_Layer
      value: 31
      objectReference: {fileID: 0}
    - target: {fileID: 6895872768017383157, guid: 9f4456036c9a93a499ec2f6c50ef5a44, type: 3}
      propertyPath: m_RootOrder
      value: 12
      objectReference: {fileID: 0}
    - target: {fileID: 6895872768017383157, guid: 9f4456036c9a93a499ec2f6c50ef5a44, type: 3}
      propertyPath: m_LocalPosition.x
      value: 1.5
      objectReference: {fileID: 0}
    - target: {fileID: 6895872768017383157, guid: 9f4456036c9a93a499ec2f6c50ef5a44, type: 3}
      propertyPath: m_LocalPosition.y
      value: -3.5
      objectReference: {fileID: 0}
    - target: {fileID: 6895872768017383157, guid: 9f4456036c9a93a499ec2f6c50ef5a44, type: 3}
      propertyPath: m_LocalPosition.z
      value: 0
      objectReference: {fileID: 0}
    - target: {fileID: 6895872768017383157, guid: 9f4456036c9a93a499ec2f6c50ef5a44, type: 3}
      propertyPath: m_LocalRotation.w
      value: 1
      objectReference: {fileID: 0}
    - target: {fileID: 6895872768017383157, guid: 9f4456036c9a93a499ec2f6c50ef5a44, type: 3}
      propertyPath: m_LocalRotation.x
      value: -0
      objectReference: {fileID: 0}
    - target: {fileID: 6895872768017383157, guid: 9f4456036c9a93a499ec2f6c50ef5a44, type: 3}
      propertyPath: m_LocalRotation.y
      value: -0
      objectReference: {fileID: 0}
    - target: {fileID: 6895872768017383157, guid: 9f4456036c9a93a499ec2f6c50ef5a44, type: 3}
      propertyPath: m_LocalRotation.z
      value: -0
      objectReference: {fileID: 0}
    - target: {fileID: 6895872768017383157, guid: 9f4456036c9a93a499ec2f6c50ef5a44, type: 3}
      propertyPath: m_LocalEulerAnglesHint.x
      value: 0
      objectReference: {fileID: 0}
    - target: {fileID: 6895872768017383157, guid: 9f4456036c9a93a499ec2f6c50ef5a44, type: 3}
      propertyPath: m_LocalEulerAnglesHint.y
      value: 0
      objectReference: {fileID: 0}
    - target: {fileID: 6895872768017383157, guid: 9f4456036c9a93a499ec2f6c50ef5a44, type: 3}
      propertyPath: m_LocalEulerAnglesHint.z
      value: 0
      objectReference: {fileID: 0}
    m_RemovedComponents: []
  m_SourcePrefab: {fileID: 100100000, guid: 9f4456036c9a93a499ec2f6c50ef5a44, type: 3}
--- !u!1 &479976643170881959 stripped
GameObject:
  m_CorrespondingSourceObject: {fileID: 849398251704471522, guid: 9f4456036c9a93a499ec2f6c50ef5a44, type: 3}
  m_PrefabInstance: {fileID: 963931963180293701}
  m_PrefabAsset: {fileID: 0}
--- !u!4 &5968286263755055280 stripped
Transform:
  m_CorrespondingSourceObject: {fileID: 6895872768017383157, guid: 9f4456036c9a93a499ec2f6c50ef5a44, type: 3}
  m_PrefabInstance: {fileID: 963931963180293701}
  m_PrefabAsset: {fileID: 0}
--- !u!1001 &1610484766198854632
PrefabInstance:
  m_ObjectHideFlags: 0
  serializedVersion: 2
  m_Modification:
    m_TransformParent: {fileID: 6018719740850199984}
    m_Modifications:
    - target: {fileID: 1157647942188618083, guid: 4919b22a90828ae4c9bf2ebef120548b, type: 3}
      propertyPath: m_Name
      value: LightChangeToDarkness
      objectReference: {fileID: 0}
    - target: {fileID: 1157647942188618083, guid: 4919b22a90828ae4c9bf2ebef120548b, type: 3}
      propertyPath: m_Layer
      value: 31
      objectReference: {fileID: 0}
    - target: {fileID: 4929873830278897780, guid: 4919b22a90828ae4c9bf2ebef120548b, type: 3}
      propertyPath: m_RootOrder
      value: 7
      objectReference: {fileID: 0}
    - target: {fileID: 4929873830278897780, guid: 4919b22a90828ae4c9bf2ebef120548b, type: 3}
      propertyPath: m_LocalPosition.x
      value: -3.5
      objectReference: {fileID: 0}
    - target: {fileID: 4929873830278897780, guid: 4919b22a90828ae4c9bf2ebef120548b, type: 3}
      propertyPath: m_LocalPosition.y
      value: -0.5
      objectReference: {fileID: 0}
    - target: {fileID: 4929873830278897780, guid: 4919b22a90828ae4c9bf2ebef120548b, type: 3}
      propertyPath: m_LocalPosition.z
      value: 0
      objectReference: {fileID: 0}
    - target: {fileID: 4929873830278897780, guid: 4919b22a90828ae4c9bf2ebef120548b, type: 3}
      propertyPath: m_LocalRotation.w
      value: 1
      objectReference: {fileID: 0}
    - target: {fileID: 4929873830278897780, guid: 4919b22a90828ae4c9bf2ebef120548b, type: 3}
      propertyPath: m_LocalRotation.x
      value: -0
      objectReference: {fileID: 0}
    - target: {fileID: 4929873830278897780, guid: 4919b22a90828ae4c9bf2ebef120548b, type: 3}
      propertyPath: m_LocalRotation.y
      value: -0
      objectReference: {fileID: 0}
    - target: {fileID: 4929873830278897780, guid: 4919b22a90828ae4c9bf2ebef120548b, type: 3}
      propertyPath: m_LocalRotation.z
      value: -0
      objectReference: {fileID: 0}
    - target: {fileID: 4929873830278897780, guid: 4919b22a90828ae4c9bf2ebef120548b, type: 3}
      propertyPath: m_LocalEulerAnglesHint.x
      value: 0
      objectReference: {fileID: 0}
    - target: {fileID: 4929873830278897780, guid: 4919b22a90828ae4c9bf2ebef120548b, type: 3}
      propertyPath: m_LocalEulerAnglesHint.y
      value: 0
      objectReference: {fileID: 0}
    - target: {fileID: 4929873830278897780, guid: 4919b22a90828ae4c9bf2ebef120548b, type: 3}
      propertyPath: m_LocalEulerAnglesHint.z
      value: 0
      objectReference: {fileID: 0}
    m_RemovedComponents: []
  m_SourcePrefab: {fileID: 100100000, guid: 4919b22a90828ae4c9bf2ebef120548b, type: 3}
--- !u!4 &5923352253345911708 stripped
Transform:
  m_CorrespondingSourceObject: {fileID: 4929873830278897780, guid: 4919b22a90828ae4c9bf2ebef120548b, type: 3}
  m_PrefabInstance: {fileID: 1610484766198854632}
  m_PrefabAsset: {fileID: 0}
--- !u!1 &452996553845023371 stripped
GameObject:
  m_CorrespondingSourceObject: {fileID: 1157647942188618083, guid: 4919b22a90828ae4c9bf2ebef120548b, type: 3}
  m_PrefabInstance: {fileID: 1610484766198854632}
  m_PrefabAsset: {fileID: 0}
--- !u!1001 &1653104673150316400
PrefabInstance:
  m_ObjectHideFlags: 0
  serializedVersion: 2
  m_Modification:
    m_TransformParent: {fileID: 6018719740850199984}
    m_Modifications:
    - target: {fileID: 1157647942188618083, guid: cb3d18c3b116691499554f02c0ddcd1a, type: 3}
      propertyPath: m_Name
      value: LightChangeToMidLight
      objectReference: {fileID: 0}
    - target: {fileID: 1157647942188618083, guid: cb3d18c3b116691499554f02c0ddcd1a, type: 3}
      propertyPath: m_Layer
      value: 31
      objectReference: {fileID: 0}
    - target: {fileID: 4929873830278897780, guid: cb3d18c3b116691499554f02c0ddcd1a, type: 3}
      propertyPath: m_RootOrder
      value: 13
      objectReference: {fileID: 0}
    - target: {fileID: 4929873830278897780, guid: cb3d18c3b116691499554f02c0ddcd1a, type: 3}
      propertyPath: m_LocalPosition.x
      value: -3.5
      objectReference: {fileID: 0}
    - target: {fileID: 4929873830278897780, guid: cb3d18c3b116691499554f02c0ddcd1a, type: 3}
      propertyPath: m_LocalPosition.y
      value: -3.5
      objectReference: {fileID: 0}
    - target: {fileID: 4929873830278897780, guid: cb3d18c3b116691499554f02c0ddcd1a, type: 3}
      propertyPath: m_LocalPosition.z
      value: 0
      objectReference: {fileID: 0}
    - target: {fileID: 4929873830278897780, guid: cb3d18c3b116691499554f02c0ddcd1a, type: 3}
      propertyPath: m_LocalRotation.w
      value: 1
      objectReference: {fileID: 0}
    - target: {fileID: 4929873830278897780, guid: cb3d18c3b116691499554f02c0ddcd1a, type: 3}
      propertyPath: m_LocalRotation.x
      value: -0
      objectReference: {fileID: 0}
    - target: {fileID: 4929873830278897780, guid: cb3d18c3b116691499554f02c0ddcd1a, type: 3}
      propertyPath: m_LocalRotation.y
      value: -0
      objectReference: {fileID: 0}
    - target: {fileID: 4929873830278897780, guid: cb3d18c3b116691499554f02c0ddcd1a, type: 3}
      propertyPath: m_LocalRotation.z
      value: -0
      objectReference: {fileID: 0}
    - target: {fileID: 4929873830278897780, guid: cb3d18c3b116691499554f02c0ddcd1a, type: 3}
      propertyPath: m_LocalEulerAnglesHint.x
      value: 0
      objectReference: {fileID: 0}
    - target: {fileID: 4929873830278897780, guid: cb3d18c3b116691499554f02c0ddcd1a, type: 3}
      propertyPath: m_LocalEulerAnglesHint.y
      value: 0
      objectReference: {fileID: 0}
    - target: {fileID: 4929873830278897780, guid: cb3d18c3b116691499554f02c0ddcd1a, type: 3}
      propertyPath: m_LocalEulerAnglesHint.z
      value: 0
      objectReference: {fileID: 0}
    m_RemovedComponents: []
  m_SourcePrefab: {fileID: 100100000, guid: cb3d18c3b116691499554f02c0ddcd1a, type: 3}
--- !u!1 &495901023856295443 stripped
GameObject:
  m_CorrespondingSourceObject: {fileID: 1157647942188618083, guid: cb3d18c3b116691499554f02c0ddcd1a, type: 3}
  m_PrefabInstance: {fileID: 1653104673150316400}
  m_PrefabAsset: {fileID: 0}
--- !u!4 &5952474272095866628 stripped
Transform:
  m_CorrespondingSourceObject: {fileID: 4929873830278897780, guid: cb3d18c3b116691499554f02c0ddcd1a, type: 3}
  m_PrefabInstance: {fileID: 1653104673150316400}
  m_PrefabAsset: {fileID: 0}
--- !u!1001 &2111168458142110218
PrefabInstance:
  m_ObjectHideFlags: 0
  serializedVersion: 2
  m_Modification:
    m_TransformParent: {fileID: 6018719740850199984}
    m_Modifications:
    - target: {fileID: 1157647942188618083, guid: 4919b22a90828ae4c9bf2ebef120548b, type: 3}
      propertyPath: m_Name
      value: LightChangeToDarkness
      objectReference: {fileID: 0}
    - target: {fileID: 1157647942188618083, guid: 4919b22a90828ae4c9bf2ebef120548b, type: 3}
      propertyPath: m_Layer
      value: 31
      objectReference: {fileID: 0}
    - target: {fileID: 4929873830278897780, guid: 4919b22a90828ae4c9bf2ebef120548b, type: 3}
      propertyPath: m_RootOrder
      value: 15
      objectReference: {fileID: 0}
    - target: {fileID: 4929873830278897780, guid: 4919b22a90828ae4c9bf2ebef120548b, type: 3}
      propertyPath: m_LocalPosition.x
      value: -5.5
      objectReference: {fileID: 0}
    - target: {fileID: 4929873830278897780, guid: 4919b22a90828ae4c9bf2ebef120548b, type: 3}
      propertyPath: m_LocalPosition.y
      value: -3.5
      objectReference: {fileID: 0}
    - target: {fileID: 4929873830278897780, guid: 4919b22a90828ae4c9bf2ebef120548b, type: 3}
      propertyPath: m_LocalPosition.z
      value: 0
      objectReference: {fileID: 0}
    - target: {fileID: 4929873830278897780, guid: 4919b22a90828ae4c9bf2ebef120548b, type: 3}
      propertyPath: m_LocalRotation.w
      value: 1
      objectReference: {fileID: 0}
    - target: {fileID: 4929873830278897780, guid: 4919b22a90828ae4c9bf2ebef120548b, type: 3}
      propertyPath: m_LocalRotation.x
      value: -0
      objectReference: {fileID: 0}
    - target: {fileID: 4929873830278897780, guid: 4919b22a90828ae4c9bf2ebef120548b, type: 3}
      propertyPath: m_LocalRotation.y
      value: -0
      objectReference: {fileID: 0}
    - target: {fileID: 4929873830278897780, guid: 4919b22a90828ae4c9bf2ebef120548b, type: 3}
      propertyPath: m_LocalRotation.z
      value: -0
      objectReference: {fileID: 0}
    - target: {fileID: 4929873830278897780, guid: 4919b22a90828ae4c9bf2ebef120548b, type: 3}
      propertyPath: m_LocalEulerAnglesHint.x
      value: 0
      objectReference: {fileID: 0}
    - target: {fileID: 4929873830278897780, guid: 4919b22a90828ae4c9bf2ebef120548b, type: 3}
      propertyPath: m_LocalEulerAnglesHint.y
      value: 0
      objectReference: {fileID: 0}
    - target: {fileID: 4929873830278897780, guid: 4919b22a90828ae4c9bf2ebef120548b, type: 3}
      propertyPath: m_LocalEulerAnglesHint.z
      value: 0
      objectReference: {fileID: 0}
    m_RemovedComponents: []
  m_SourcePrefab: {fileID: 100100000, guid: 4919b22a90828ae4c9bf2ebef120548b, type: 3}
--- !u!1 &962831532639945577 stripped
GameObject:
  m_CorrespondingSourceObject: {fileID: 1157647942188618083, guid: 4919b22a90828ae4c9bf2ebef120548b, type: 3}
  m_PrefabInstance: {fileID: 2111168458142110218}
  m_PrefabAsset: {fileID: 0}
--- !u!4 &6423838032970216062 stripped
Transform:
  m_CorrespondingSourceObject: {fileID: 4929873830278897780, guid: 4919b22a90828ae4c9bf2ebef120548b, type: 3}
  m_PrefabInstance: {fileID: 2111168458142110218}
  m_PrefabAsset: {fileID: 0}
--- !u!1001 &2507789715985704098
PrefabInstance:
  m_ObjectHideFlags: 0
  serializedVersion: 2
  m_Modification:
    m_TransformParent: {fileID: 6018719740850199984}
    m_Modifications:
    - target: {fileID: 1157647942188618083, guid: cb3d18c3b116691499554f02c0ddcd1a, type: 3}
      propertyPath: m_Name
      value: LightChangeToMidLight
      objectReference: {fileID: 0}
    - target: {fileID: 1157647942188618083, guid: cb3d18c3b116691499554f02c0ddcd1a, type: 3}
      propertyPath: m_Layer
      value: 31
      objectReference: {fileID: 0}
    - target: {fileID: 4929873830278897780, guid: cb3d18c3b116691499554f02c0ddcd1a, type: 3}
      propertyPath: m_RootOrder
      value: 4
      objectReference: {fileID: 0}
    - target: {fileID: 4929873830278897780, guid: cb3d18c3b116691499554f02c0ddcd1a, type: 3}
      propertyPath: m_LocalPosition.x
      value: -2.5
      objectReference: {fileID: 0}
    - target: {fileID: 4929873830278897780, guid: cb3d18c3b116691499554f02c0ddcd1a, type: 3}
      propertyPath: m_LocalPosition.y
      value: -0.5
      objectReference: {fileID: 0}
    - target: {fileID: 4929873830278897780, guid: cb3d18c3b116691499554f02c0ddcd1a, type: 3}
      propertyPath: m_LocalPosition.z
      value: 0
      objectReference: {fileID: 0}
    - target: {fileID: 4929873830278897780, guid: cb3d18c3b116691499554f02c0ddcd1a, type: 3}
      propertyPath: m_LocalRotation.w
      value: 1
      objectReference: {fileID: 0}
    - target: {fileID: 4929873830278897780, guid: cb3d18c3b116691499554f02c0ddcd1a, type: 3}
      propertyPath: m_LocalRotation.x
      value: -0
      objectReference: {fileID: 0}
    - target: {fileID: 4929873830278897780, guid: cb3d18c3b116691499554f02c0ddcd1a, type: 3}
      propertyPath: m_LocalRotation.y
      value: -0
      objectReference: {fileID: 0}
    - target: {fileID: 4929873830278897780, guid: cb3d18c3b116691499554f02c0ddcd1a, type: 3}
      propertyPath: m_LocalRotation.z
      value: -0
      objectReference: {fileID: 0}
    - target: {fileID: 4929873830278897780, guid: cb3d18c3b116691499554f02c0ddcd1a, type: 3}
      propertyPath: m_LocalEulerAnglesHint.x
      value: 0
      objectReference: {fileID: 0}
    - target: {fileID: 4929873830278897780, guid: cb3d18c3b116691499554f02c0ddcd1a, type: 3}
      propertyPath: m_LocalEulerAnglesHint.y
      value: 0
      objectReference: {fileID: 0}
    - target: {fileID: 4929873830278897780, guid: cb3d18c3b116691499554f02c0ddcd1a, type: 3}
      propertyPath: m_LocalEulerAnglesHint.z
      value: 0
      objectReference: {fileID: 0}
    m_RemovedComponents: []
  m_SourcePrefab: {fileID: 100100000, guid: cb3d18c3b116691499554f02c0ddcd1a, type: 3}
--- !u!1 &3665296632920536513 stripped
GameObject:
  m_CorrespondingSourceObject: {fileID: 1157647942188618083, guid: cb3d18c3b116691499554f02c0ddcd1a, type: 3}
  m_PrefabInstance: {fileID: 2507789715985704098}
  m_PrefabAsset: {fileID: 0}
--- !u!4 &7396910963555828950 stripped
Transform:
  m_CorrespondingSourceObject: {fileID: 4929873830278897780, guid: cb3d18c3b116691499554f02c0ddcd1a, type: 3}
  m_PrefabInstance: {fileID: 2507789715985704098}
  m_PrefabAsset: {fileID: 0}
--- !u!1001 &2974892360095032833
PrefabInstance:
  m_ObjectHideFlags: 0
  serializedVersion: 2
  m_Modification:
    m_TransformParent: {fileID: 6018719740850199984}
    m_Modifications:
    - target: {fileID: 1157647942188618083, guid: 4919b22a90828ae4c9bf2ebef120548b, type: 3}
      propertyPath: m_Name
      value: LightChangeToDarkness
      objectReference: {fileID: 0}
    - target: {fileID: 1157647942188618083, guid: 4919b22a90828ae4c9bf2ebef120548b, type: 3}
      propertyPath: m_Layer
      value: 31
      objectReference: {fileID: 0}
    - target: {fileID: 4929873830278897780, guid: 4919b22a90828ae4c9bf2ebef120548b, type: 3}
      propertyPath: m_RootOrder
      value: 10
      objectReference: {fileID: 0}
    - target: {fileID: 4929873830278897780, guid: 4919b22a90828ae4c9bf2ebef120548b, type: 3}
      propertyPath: m_LocalPosition.x
      value: 1.5
      objectReference: {fileID: 0}
    - target: {fileID: 4929873830278897780, guid: 4919b22a90828ae4c9bf2ebef120548b, type: 3}
      propertyPath: m_LocalPosition.y
      value: -1.5
      objectReference: {fileID: 0}
    - target: {fileID: 4929873830278897780, guid: 4919b22a90828ae4c9bf2ebef120548b, type: 3}
      propertyPath: m_LocalPosition.z
      value: 0
      objectReference: {fileID: 0}
    - target: {fileID: 4929873830278897780, guid: 4919b22a90828ae4c9bf2ebef120548b, type: 3}
      propertyPath: m_LocalRotation.w
      value: 1
      objectReference: {fileID: 0}
    - target: {fileID: 4929873830278897780, guid: 4919b22a90828ae4c9bf2ebef120548b, type: 3}
      propertyPath: m_LocalRotation.x
      value: -0
      objectReference: {fileID: 0}
    - target: {fileID: 4929873830278897780, guid: 4919b22a90828ae4c9bf2ebef120548b, type: 3}
      propertyPath: m_LocalRotation.y
      value: -0
      objectReference: {fileID: 0}
    - target: {fileID: 4929873830278897780, guid: 4919b22a90828ae4c9bf2ebef120548b, type: 3}
      propertyPath: m_LocalRotation.z
      value: -0
      objectReference: {fileID: 0}
    - target: {fileID: 4929873830278897780, guid: 4919b22a90828ae4c9bf2ebef120548b, type: 3}
      propertyPath: m_LocalEulerAnglesHint.x
      value: 0
      objectReference: {fileID: 0}
    - target: {fileID: 4929873830278897780, guid: 4919b22a90828ae4c9bf2ebef120548b, type: 3}
      propertyPath: m_LocalEulerAnglesHint.y
      value: 0
      objectReference: {fileID: 0}
    - target: {fileID: 4929873830278897780, guid: 4919b22a90828ae4c9bf2ebef120548b, type: 3}
      propertyPath: m_LocalEulerAnglesHint.z
      value: 0
      objectReference: {fileID: 0}
    m_RemovedComponents: []
  m_SourcePrefab: {fileID: 100100000, guid: 4919b22a90828ae4c9bf2ebef120548b, type: 3}
--- !u!4 &7864022678896133749 stripped
Transform:
  m_CorrespondingSourceObject: {fileID: 4929873830278897780, guid: 4919b22a90828ae4c9bf2ebef120548b, type: 3}
  m_PrefabInstance: {fileID: 2974892360095032833}
  m_PrefabAsset: {fileID: 0}
--- !u!1 &4132116964533450594 stripped
GameObject:
  m_CorrespondingSourceObject: {fileID: 1157647942188618083, guid: 4919b22a90828ae4c9bf2ebef120548b, type: 3}
  m_PrefabInstance: {fileID: 2974892360095032833}
  m_PrefabAsset: {fileID: 0}
--- !u!1001 &3529648500431902953
PrefabInstance:
  m_ObjectHideFlags: 0
  serializedVersion: 2
  m_Modification:
    m_TransformParent: {fileID: 6018719740850199984}
    m_Modifications:
    - target: {fileID: 1157647942188618083, guid: cb3d18c3b116691499554f02c0ddcd1a, type: 3}
      propertyPath: m_Name
      value: LightChangeToMidLight
      objectReference: {fileID: 0}
    - target: {fileID: 1157647942188618083, guid: cb3d18c3b116691499554f02c0ddcd1a, type: 3}
      propertyPath: m_Layer
      value: 31
      objectReference: {fileID: 0}
    - target: {fileID: 4929873830278897780, guid: cb3d18c3b116691499554f02c0ddcd1a, type: 3}
      propertyPath: m_RootOrder
      value: 14
      objectReference: {fileID: 0}
    - target: {fileID: 4929873830278897780, guid: cb3d18c3b116691499554f02c0ddcd1a, type: 3}
      propertyPath: m_LocalPosition.x
      value: -4.5
      objectReference: {fileID: 0}
    - target: {fileID: 4929873830278897780, guid: cb3d18c3b116691499554f02c0ddcd1a, type: 3}
      propertyPath: m_LocalPosition.y
      value: -3.5
      objectReference: {fileID: 0}
    - target: {fileID: 4929873830278897780, guid: cb3d18c3b116691499554f02c0ddcd1a, type: 3}
      propertyPath: m_LocalPosition.z
      value: 0
      objectReference: {fileID: 0}
    - target: {fileID: 4929873830278897780, guid: cb3d18c3b116691499554f02c0ddcd1a, type: 3}
      propertyPath: m_LocalRotation.w
      value: 1
      objectReference: {fileID: 0}
    - target: {fileID: 4929873830278897780, guid: cb3d18c3b116691499554f02c0ddcd1a, type: 3}
      propertyPath: m_LocalRotation.x
      value: -0
      objectReference: {fileID: 0}
    - target: {fileID: 4929873830278897780, guid: cb3d18c3b116691499554f02c0ddcd1a, type: 3}
      propertyPath: m_LocalRotation.y
      value: -0
      objectReference: {fileID: 0}
    - target: {fileID: 4929873830278897780, guid: cb3d18c3b116691499554f02c0ddcd1a, type: 3}
      propertyPath: m_LocalRotation.z
      value: -0
      objectReference: {fileID: 0}
    - target: {fileID: 4929873830278897780, guid: cb3d18c3b116691499554f02c0ddcd1a, type: 3}
      propertyPath: m_LocalEulerAnglesHint.x
      value: 0
      objectReference: {fileID: 0}
    - target: {fileID: 4929873830278897780, guid: cb3d18c3b116691499554f02c0ddcd1a, type: 3}
      propertyPath: m_LocalEulerAnglesHint.y
      value: 0
      objectReference: {fileID: 0}
    - target: {fileID: 4929873830278897780, guid: cb3d18c3b116691499554f02c0ddcd1a, type: 3}
      propertyPath: m_LocalEulerAnglesHint.z
      value: 0
      objectReference: {fileID: 0}
    m_RemovedComponents: []
  m_SourcePrefab: {fileID: 100100000, guid: cb3d18c3b116691499554f02c0ddcd1a, type: 3}
--- !u!1 &2372022853452597642 stripped
GameObject:
  m_CorrespondingSourceObject: {fileID: 1157647942188618083, guid: cb3d18c3b116691499554f02c0ddcd1a, type: 3}
  m_PrefabInstance: {fileID: 3529648500431902953}
  m_PrefabAsset: {fileID: 0}
--- !u!4 &8399700101798262941 stripped
Transform:
  m_CorrespondingSourceObject: {fileID: 4929873830278897780, guid: cb3d18c3b116691499554f02c0ddcd1a, type: 3}
  m_PrefabInstance: {fileID: 3529648500431902953}
  m_PrefabAsset: {fileID: 0}
--- !u!1001 &3738419912752844744
PrefabInstance:
  m_ObjectHideFlags: 0
  serializedVersion: 2
  m_Modification:
    m_TransformParent: {fileID: 6018719740850199984}
    m_Modifications:
    - target: {fileID: 1157647942188618083, guid: 4919b22a90828ae4c9bf2ebef120548b, type: 3}
      propertyPath: m_Name
      value: LightChangeToDarkness
      objectReference: {fileID: 0}
    - target: {fileID: 1157647942188618083, guid: 4919b22a90828ae4c9bf2ebef120548b, type: 3}
      propertyPath: m_Layer
      value: 31
      objectReference: {fileID: 0}
    - target: {fileID: 4929873830278897780, guid: 4919b22a90828ae4c9bf2ebef120548b, type: 3}
      propertyPath: m_RootOrder
      value: 9
      objectReference: {fileID: 0}
    - target: {fileID: 4929873830278897780, guid: 4919b22a90828ae4c9bf2ebef120548b, type: 3}
      propertyPath: m_LocalPosition.x
      value: -5.5
      objectReference: {fileID: 0}
    - target: {fileID: 4929873830278897780, guid: 4919b22a90828ae4c9bf2ebef120548b, type: 3}
      propertyPath: m_LocalPosition.y
      value: -0.5
      objectReference: {fileID: 0}
    - target: {fileID: 4929873830278897780, guid: 4919b22a90828ae4c9bf2ebef120548b, type: 3}
      propertyPath: m_LocalPosition.z
      value: 0
      objectReference: {fileID: 0}
    - target: {fileID: 4929873830278897780, guid: 4919b22a90828ae4c9bf2ebef120548b, type: 3}
      propertyPath: m_LocalRotation.w
      value: 1
      objectReference: {fileID: 0}
    - target: {fileID: 4929873830278897780, guid: 4919b22a90828ae4c9bf2ebef120548b, type: 3}
      propertyPath: m_LocalRotation.x
      value: -0
      objectReference: {fileID: 0}
    - target: {fileID: 4929873830278897780, guid: 4919b22a90828ae4c9bf2ebef120548b, type: 3}
      propertyPath: m_LocalRotation.y
      value: -0
      objectReference: {fileID: 0}
    - target: {fileID: 4929873830278897780, guid: 4919b22a90828ae4c9bf2ebef120548b, type: 3}
      propertyPath: m_LocalRotation.z
      value: -0
      objectReference: {fileID: 0}
    - target: {fileID: 4929873830278897780, guid: 4919b22a90828ae4c9bf2ebef120548b, type: 3}
      propertyPath: m_LocalEulerAnglesHint.x
      value: 0
      objectReference: {fileID: 0}
    - target: {fileID: 4929873830278897780, guid: 4919b22a90828ae4c9bf2ebef120548b, type: 3}
      propertyPath: m_LocalEulerAnglesHint.y
      value: 0
      objectReference: {fileID: 0}
    - target: {fileID: 4929873830278897780, guid: 4919b22a90828ae4c9bf2ebef120548b, type: 3}
      propertyPath: m_LocalEulerAnglesHint.z
      value: 0
      objectReference: {fileID: 0}
    m_RemovedComponents: []
  m_SourcePrefab: {fileID: 100100000, guid: 4919b22a90828ae4c9bf2ebef120548b, type: 3}
--- !u!4 &8614232955040427964 stripped
Transform:
  m_CorrespondingSourceObject: {fileID: 4929873830278897780, guid: 4919b22a90828ae4c9bf2ebef120548b, type: 3}
  m_PrefabInstance: {fileID: 3738419912752844744}
  m_PrefabAsset: {fileID: 0}
--- !u!1 &2589925688370536107 stripped
GameObject:
  m_CorrespondingSourceObject: {fileID: 1157647942188618083, guid: 4919b22a90828ae4c9bf2ebef120548b, type: 3}
  m_PrefabInstance: {fileID: 3738419912752844744}
  m_PrefabAsset: {fileID: 0}
--- !u!1001 &4842395808966235690
PrefabInstance:
  m_ObjectHideFlags: 0
  serializedVersion: 2
  m_Modification:
    m_TransformParent: {fileID: 6018719740850199984}
    m_Modifications:
    - target: {fileID: 849398251704471522, guid: 9f4456036c9a93a499ec2f6c50ef5a44, type: 3}
      propertyPath: m_Name
      value: CameraShake
      objectReference: {fileID: 0}
    - target: {fileID: 6895872768017383157, guid: 9f4456036c9a93a499ec2f6c50ef5a44, type: 3}
      propertyPath: m_RootOrder
      value: 16
      objectReference: {fileID: 0}
    - target: {fileID: 6895872768017383157, guid: 9f4456036c9a93a499ec2f6c50ef5a44, type: 3}
      propertyPath: m_LocalPosition.x
      value: 6.5
      objectReference: {fileID: 0}
    - target: {fileID: 6895872768017383157, guid: 9f4456036c9a93a499ec2f6c50ef5a44, type: 3}
      propertyPath: m_LocalPosition.y
      value: -4.5
      objectReference: {fileID: 0}
    - target: {fileID: 6895872768017383157, guid: 9f4456036c9a93a499ec2f6c50ef5a44, type: 3}
      propertyPath: m_LocalPosition.z
      value: 0
      objectReference: {fileID: 0}
    - target: {fileID: 6895872768017383157, guid: 9f4456036c9a93a499ec2f6c50ef5a44, type: 3}
      propertyPath: m_LocalRotation.w
      value: 1
      objectReference: {fileID: 0}
    - target: {fileID: 6895872768017383157, guid: 9f4456036c9a93a499ec2f6c50ef5a44, type: 3}
      propertyPath: m_LocalRotation.x
      value: -0
      objectReference: {fileID: 0}
    - target: {fileID: 6895872768017383157, guid: 9f4456036c9a93a499ec2f6c50ef5a44, type: 3}
      propertyPath: m_LocalRotation.y
      value: -0
      objectReference: {fileID: 0}
    - target: {fileID: 6895872768017383157, guid: 9f4456036c9a93a499ec2f6c50ef5a44, type: 3}
      propertyPath: m_LocalRotation.z
      value: -0
      objectReference: {fileID: 0}
    - target: {fileID: 6895872768017383157, guid: 9f4456036c9a93a499ec2f6c50ef5a44, type: 3}
      propertyPath: m_LocalEulerAnglesHint.x
      value: 0
      objectReference: {fileID: 0}
    - target: {fileID: 6895872768017383157, guid: 9f4456036c9a93a499ec2f6c50ef5a44, type: 3}
      propertyPath: m_LocalEulerAnglesHint.y
      value: 0
      objectReference: {fileID: 0}
    - target: {fileID: 6895872768017383157, guid: 9f4456036c9a93a499ec2f6c50ef5a44, type: 3}
      propertyPath: m_LocalEulerAnglesHint.z
      value: 0
      objectReference: {fileID: 0}
    m_RemovedComponents: []
  m_SourcePrefab: {fileID: 100100000, guid: 9f4456036c9a93a499ec2f6c50ef5a44, type: 3}
--- !u!1 &5258531323322767816 stripped
GameObject:
  m_CorrespondingSourceObject: {fileID: 849398251704471522, guid: 9f4456036c9a93a499ec2f6c50ef5a44, type: 3}
  m_PrefabInstance: {fileID: 4842395808966235690}
  m_PrefabAsset: {fileID: 0}
--- !u!4 &2053829352729274591 stripped
Transform:
  m_CorrespondingSourceObject: {fileID: 6895872768017383157, guid: 9f4456036c9a93a499ec2f6c50ef5a44, type: 3}
  m_PrefabInstance: {fileID: 4842395808966235690}
  m_PrefabAsset: {fileID: 0}
--- !u!1001 &6044991506141224601
PrefabInstance:
  m_ObjectHideFlags: 0
  serializedVersion: 2
  m_Modification:
    m_TransformParent: {fileID: 6018719740850199984}
    m_Modifications:
    - target: {fileID: 1157647942188618083, guid: 4919b22a90828ae4c9bf2ebef120548b, type: 3}
      propertyPath: m_Name
      value: LightChangeToDarkness
      objectReference: {fileID: 0}
    - target: {fileID: 1157647942188618083, guid: 4919b22a90828ae4c9bf2ebef120548b, type: 3}
      propertyPath: m_Layer
      value: 31
      objectReference: {fileID: 0}
    - target: {fileID: 4929873830278897780, guid: 4919b22a90828ae4c9bf2ebef120548b, type: 3}
      propertyPath: m_RootOrder
      value: 11
      objectReference: {fileID: 0}
    - target: {fileID: 4929873830278897780, guid: 4919b22a90828ae4c9bf2ebef120548b, type: 3}
      propertyPath: m_LocalPosition.x
      value: 0.5
      objectReference: {fileID: 0}
    - target: {fileID: 4929873830278897780, guid: 4919b22a90828ae4c9bf2ebef120548b, type: 3}
      propertyPath: m_LocalPosition.y
      value: -1.5
      objectReference: {fileID: 0}
    - target: {fileID: 4929873830278897780, guid: 4919b22a90828ae4c9bf2ebef120548b, type: 3}
      propertyPath: m_LocalPosition.z
      value: 0
      objectReference: {fileID: 0}
    - target: {fileID: 4929873830278897780, guid: 4919b22a90828ae4c9bf2ebef120548b, type: 3}
      propertyPath: m_LocalRotation.w
      value: 1
      objectReference: {fileID: 0}
    - target: {fileID: 4929873830278897780, guid: 4919b22a90828ae4c9bf2ebef120548b, type: 3}
      propertyPath: m_LocalRotation.x
      value: -0
      objectReference: {fileID: 0}
    - target: {fileID: 4929873830278897780, guid: 4919b22a90828ae4c9bf2ebef120548b, type: 3}
      propertyPath: m_LocalRotation.y
      value: -0
      objectReference: {fileID: 0}
    - target: {fileID: 4929873830278897780, guid: 4919b22a90828ae4c9bf2ebef120548b, type: 3}
      propertyPath: m_LocalRotation.z
      value: -0
      objectReference: {fileID: 0}
    - target: {fileID: 4929873830278897780, guid: 4919b22a90828ae4c9bf2ebef120548b, type: 3}
      propertyPath: m_LocalEulerAnglesHint.x
      value: 0
      objectReference: {fileID: 0}
    - target: {fileID: 4929873830278897780, guid: 4919b22a90828ae4c9bf2ebef120548b, type: 3}
      propertyPath: m_LocalEulerAnglesHint.y
      value: 0
      objectReference: {fileID: 0}
    - target: {fileID: 4929873830278897780, guid: 4919b22a90828ae4c9bf2ebef120548b, type: 3}
      propertyPath: m_LocalEulerAnglesHint.z
      value: 0
      objectReference: {fileID: 0}
    m_RemovedComponents: []
  m_SourcePrefab: {fileID: 100100000, guid: 4919b22a90828ae4c9bf2ebef120548b, type: 3}
--- !u!1 &4896772979969511418 stripped
GameObject:
  m_CorrespondingSourceObject: {fileID: 1157647942188618083, guid: 4919b22a90828ae4c9bf2ebef120548b, type: 3}
  m_PrefabInstance: {fileID: 6044991506141224601}
  m_PrefabAsset: {fileID: 0}
--- !u!4 &1697419034201013997 stripped
Transform:
  m_CorrespondingSourceObject: {fileID: 4929873830278897780, guid: 4919b22a90828ae4c9bf2ebef120548b, type: 3}
  m_PrefabInstance: {fileID: 6044991506141224601}
  m_PrefabAsset: {fileID: 0}
--- !u!1001 &7301770274271046158
PrefabInstance:
  m_ObjectHideFlags: 0
  serializedVersion: 2
  m_Modification:
    m_TransformParent: {fileID: 6018719740850199984}
    m_Modifications:
    - target: {fileID: 1157647942188618083, guid: 4919b22a90828ae4c9bf2ebef120548b, type: 3}
      propertyPath: m_Name
      value: LightChangeToDarkness
      objectReference: {fileID: 0}
    - target: {fileID: 1157647942188618083, guid: 4919b22a90828ae4c9bf2ebef120548b, type: 3}
      propertyPath: m_Layer
      value: 31
      objectReference: {fileID: 0}
    - target: {fileID: 4929873830278897780, guid: 4919b22a90828ae4c9bf2ebef120548b, type: 3}
      propertyPath: m_RootOrder
      value: 6
      objectReference: {fileID: 0}
    - target: {fileID: 4929873830278897780, guid: 4919b22a90828ae4c9bf2ebef120548b, type: 3}
      propertyPath: m_LocalPosition.x
      value: -4.5
      objectReference: {fileID: 0}
    - target: {fileID: 4929873830278897780, guid: 4919b22a90828ae4c9bf2ebef120548b, type: 3}
      propertyPath: m_LocalPosition.y
      value: -1.5
      objectReference: {fileID: 0}
    - target: {fileID: 4929873830278897780, guid: 4919b22a90828ae4c9bf2ebef120548b, type: 3}
      propertyPath: m_LocalPosition.z
      value: 0
      objectReference: {fileID: 0}
    - target: {fileID: 4929873830278897780, guid: 4919b22a90828ae4c9bf2ebef120548b, type: 3}
      propertyPath: m_LocalRotation.w
      value: 1
      objectReference: {fileID: 0}
    - target: {fileID: 4929873830278897780, guid: 4919b22a90828ae4c9bf2ebef120548b, type: 3}
      propertyPath: m_LocalRotation.x
      value: -0
      objectReference: {fileID: 0}
    - target: {fileID: 4929873830278897780, guid: 4919b22a90828ae4c9bf2ebef120548b, type: 3}
      propertyPath: m_LocalRotation.y
      value: -0
      objectReference: {fileID: 0}
    - target: {fileID: 4929873830278897780, guid: 4919b22a90828ae4c9bf2ebef120548b, type: 3}
      propertyPath: m_LocalRotation.z
      value: -0
      objectReference: {fileID: 0}
    - target: {fileID: 4929873830278897780, guid: 4919b22a90828ae4c9bf2ebef120548b, type: 3}
      propertyPath: m_LocalEulerAnglesHint.x
      value: 0
      objectReference: {fileID: 0}
    - target: {fileID: 4929873830278897780, guid: 4919b22a90828ae4c9bf2ebef120548b, type: 3}
      propertyPath: m_LocalEulerAnglesHint.y
      value: 0
      objectReference: {fileID: 0}
    - target: {fileID: 4929873830278897780, guid: 4919b22a90828ae4c9bf2ebef120548b, type: 3}
      propertyPath: m_LocalEulerAnglesHint.z
      value: 0
      objectReference: {fileID: 0}
    m_RemovedComponents: []
  m_SourcePrefab: {fileID: 100100000, guid: 4919b22a90828ae4c9bf2ebef120548b, type: 3}
--- !u!4 &2395764651266280058 stripped
Transform:
  m_CorrespondingSourceObject: {fileID: 4929873830278897780, guid: 4919b22a90828ae4c9bf2ebef120548b, type: 3}
  m_PrefabInstance: {fileID: 7301770274271046158}
  m_PrefabAsset: {fileID: 0}
--- !u!1 &8450393145810877293 stripped
GameObject:
  m_CorrespondingSourceObject: {fileID: 1157647942188618083, guid: 4919b22a90828ae4c9bf2ebef120548b, type: 3}
  m_PrefabInstance: {fileID: 7301770274271046158}
  m_PrefabAsset: {fileID: 0}
--- !u!1001 &7349919455756525140
PrefabInstance:
  m_ObjectHideFlags: 0
  serializedVersion: 2
  m_Modification:
    m_TransformParent: {fileID: 6018719740850199984}
    m_Modifications:
    - target: {fileID: 1157647942188618083, guid: 4919b22a90828ae4c9bf2ebef120548b, type: 3}
      propertyPath: m_Name
      value: LightChangeToDarkness
      objectReference: {fileID: 0}
    - target: {fileID: 1157647942188618083, guid: 4919b22a90828ae4c9bf2ebef120548b, type: 3}
      propertyPath: m_Layer
      value: 31
      objectReference: {fileID: 0}
    - target: {fileID: 4929873830278897780, guid: 4919b22a90828ae4c9bf2ebef120548b, type: 3}
      propertyPath: m_RootOrder
      value: 3
      objectReference: {fileID: 0}
    - target: {fileID: 4929873830278897780, guid: 4919b22a90828ae4c9bf2ebef120548b, type: 3}
      propertyPath: m_LocalPosition.x
      value: -4.5
      objectReference: {fileID: 0}
    - target: {fileID: 4929873830278897780, guid: 4919b22a90828ae4c9bf2ebef120548b, type: 3}
      propertyPath: m_LocalPosition.y
      value: -0.5
      objectReference: {fileID: 0}
    - target: {fileID: 4929873830278897780, guid: 4919b22a90828ae4c9bf2ebef120548b, type: 3}
      propertyPath: m_LocalPosition.z
      value: 0
      objectReference: {fileID: 0}
    - target: {fileID: 4929873830278897780, guid: 4919b22a90828ae4c9bf2ebef120548b, type: 3}
      propertyPath: m_LocalRotation.w
      value: 1
      objectReference: {fileID: 0}
    - target: {fileID: 4929873830278897780, guid: 4919b22a90828ae4c9bf2ebef120548b, type: 3}
      propertyPath: m_LocalRotation.x
      value: -0
      objectReference: {fileID: 0}
    - target: {fileID: 4929873830278897780, guid: 4919b22a90828ae4c9bf2ebef120548b, type: 3}
      propertyPath: m_LocalRotation.y
      value: -0
      objectReference: {fileID: 0}
    - target: {fileID: 4929873830278897780, guid: 4919b22a90828ae4c9bf2ebef120548b, type: 3}
      propertyPath: m_LocalRotation.z
      value: -0
      objectReference: {fileID: 0}
    - target: {fileID: 4929873830278897780, guid: 4919b22a90828ae4c9bf2ebef120548b, type: 3}
      propertyPath: m_LocalEulerAnglesHint.x
      value: 0
      objectReference: {fileID: 0}
    - target: {fileID: 4929873830278897780, guid: 4919b22a90828ae4c9bf2ebef120548b, type: 3}
      propertyPath: m_LocalEulerAnglesHint.y
      value: 0
      objectReference: {fileID: 0}
    - target: {fileID: 4929873830278897780, guid: 4919b22a90828ae4c9bf2ebef120548b, type: 3}
      propertyPath: m_LocalEulerAnglesHint.z
      value: 0
      objectReference: {fileID: 0}
    m_RemovedComponents: []
  m_SourcePrefab: {fileID: 100100000, guid: 4919b22a90828ae4c9bf2ebef120548b, type: 3}
--- !u!1 &8507548624639807287 stripped
GameObject:
  m_CorrespondingSourceObject: {fileID: 1157647942188618083, guid: 4919b22a90828ae4c9bf2ebef120548b, type: 3}
  m_PrefabInstance: {fileID: 7349919455756525140}
  m_PrefabAsset: {fileID: 0}
--- !u!4 &2479872527357001248 stripped
Transform:
  m_CorrespondingSourceObject: {fileID: 4929873830278897780, guid: 4919b22a90828ae4c9bf2ebef120548b, type: 3}
  m_PrefabInstance: {fileID: 7349919455756525140}
  m_PrefabAsset: {fileID: 0}
--- !u!1001 &7619190129420142483
PrefabInstance:
  m_ObjectHideFlags: 0
  serializedVersion: 2
  m_Modification:
    m_TransformParent: {fileID: 6018719740850199984}
    m_Modifications:
    - target: {fileID: 1157647942188618083, guid: 4919b22a90828ae4c9bf2ebef120548b, type: 3}
      propertyPath: m_Name
      value: LightChangeToDarkness
      objectReference: {fileID: 0}
    - target: {fileID: 1157647942188618083, guid: 4919b22a90828ae4c9bf2ebef120548b, type: 3}
      propertyPath: m_Layer
      value: 31
      objectReference: {fileID: 0}
    - target: {fileID: 4929873830278897780, guid: 4919b22a90828ae4c9bf2ebef120548b, type: 3}
      propertyPath: m_RootOrder
      value: 5
      objectReference: {fileID: 0}
    - target: {fileID: 4929873830278897780, guid: 4919b22a90828ae4c9bf2ebef120548b, type: 3}
      propertyPath: m_LocalPosition.x
      value: -1.5
      objectReference: {fileID: 0}
    - target: {fileID: 4929873830278897780, guid: 4919b22a90828ae4c9bf2ebef120548b, type: 3}
      propertyPath: m_LocalPosition.y
      value: -1.5
      objectReference: {fileID: 0}
    - target: {fileID: 4929873830278897780, guid: 4919b22a90828ae4c9bf2ebef120548b, type: 3}
      propertyPath: m_LocalPosition.z
      value: 0
      objectReference: {fileID: 0}
    - target: {fileID: 4929873830278897780, guid: 4919b22a90828ae4c9bf2ebef120548b, type: 3}
      propertyPath: m_LocalRotation.w
      value: 1
      objectReference: {fileID: 0}
    - target: {fileID: 4929873830278897780, guid: 4919b22a90828ae4c9bf2ebef120548b, type: 3}
      propertyPath: m_LocalRotation.x
      value: -0
      objectReference: {fileID: 0}
    - target: {fileID: 4929873830278897780, guid: 4919b22a90828ae4c9bf2ebef120548b, type: 3}
      propertyPath: m_LocalRotation.y
      value: -0
      objectReference: {fileID: 0}
    - target: {fileID: 4929873830278897780, guid: 4919b22a90828ae4c9bf2ebef120548b, type: 3}
      propertyPath: m_LocalRotation.z
      value: -0
      objectReference: {fileID: 0}
    - target: {fileID: 4929873830278897780, guid: 4919b22a90828ae4c9bf2ebef120548b, type: 3}
      propertyPath: m_LocalEulerAnglesHint.x
      value: 0
      objectReference: {fileID: 0}
    - target: {fileID: 4929873830278897780, guid: 4919b22a90828ae4c9bf2ebef120548b, type: 3}
      propertyPath: m_LocalEulerAnglesHint.y
      value: 0
      objectReference: {fileID: 0}
    - target: {fileID: 4929873830278897780, guid: 4919b22a90828ae4c9bf2ebef120548b, type: 3}
      propertyPath: m_LocalEulerAnglesHint.z
      value: 0
      objectReference: {fileID: 0}
    m_RemovedComponents: []
  m_SourcePrefab: {fileID: 100100000, guid: 4919b22a90828ae4c9bf2ebef120548b, type: 3}
--- !u!4 &3303006790341666791 stripped
Transform:
  m_CorrespondingSourceObject: {fileID: 4929873830278897780, guid: 4919b22a90828ae4c9bf2ebef120548b, type: 3}
  m_PrefabInstance: {fileID: 7619190129420142483}
  m_PrefabAsset: {fileID: 0}
--- !u!1001 &8500588442022206392
PrefabInstance:
  m_ObjectHideFlags: 0
  serializedVersion: 2
  m_Modification:
    m_TransformParent: {fileID: 6018719740850199984}
    m_Modifications:
    - target: {fileID: 1157647942188618083, guid: 4919b22a90828ae4c9bf2ebef120548b, type: 3}
      propertyPath: m_Name
      value: LightChangeToDarkness
      objectReference: {fileID: 0}
    - target: {fileID: 1157647942188618083, guid: 4919b22a90828ae4c9bf2ebef120548b, type: 3}
      propertyPath: m_Layer
      value: 31
      objectReference: {fileID: 0}
    - target: {fileID: 4929873830278897780, guid: 4919b22a90828ae4c9bf2ebef120548b, type: 3}
      propertyPath: m_RootOrder
      value: 8
      objectReference: {fileID: 0}
    - target: {fileID: 4929873830278897780, guid: 4919b22a90828ae4c9bf2ebef120548b, type: 3}
      propertyPath: m_LocalPosition.x
      value: -5.5
      objectReference: {fileID: 0}
    - target: {fileID: 4929873830278897780, guid: 4919b22a90828ae4c9bf2ebef120548b, type: 3}
      propertyPath: m_LocalPosition.y
      value: -1.5
      objectReference: {fileID: 0}
    - target: {fileID: 4929873830278897780, guid: 4919b22a90828ae4c9bf2ebef120548b, type: 3}
      propertyPath: m_LocalPosition.z
      value: 0
      objectReference: {fileID: 0}
    - target: {fileID: 4929873830278897780, guid: 4919b22a90828ae4c9bf2ebef120548b, type: 3}
      propertyPath: m_LocalRotation.w
      value: 1
      objectReference: {fileID: 0}
    - target: {fileID: 4929873830278897780, guid: 4919b22a90828ae4c9bf2ebef120548b, type: 3}
      propertyPath: m_LocalRotation.x
      value: -0
      objectReference: {fileID: 0}
    - target: {fileID: 4929873830278897780, guid: 4919b22a90828ae4c9bf2ebef120548b, type: 3}
      propertyPath: m_LocalRotation.y
      value: -0
      objectReference: {fileID: 0}
    - target: {fileID: 4929873830278897780, guid: 4919b22a90828ae4c9bf2ebef120548b, type: 3}
      propertyPath: m_LocalRotation.z
      value: -0
      objectReference: {fileID: 0}
    - target: {fileID: 4929873830278897780, guid: 4919b22a90828ae4c9bf2ebef120548b, type: 3}
      propertyPath: m_LocalEulerAnglesHint.x
      value: 0
      objectReference: {fileID: 0}
    - target: {fileID: 4929873830278897780, guid: 4919b22a90828ae4c9bf2ebef120548b, type: 3}
      propertyPath: m_LocalEulerAnglesHint.y
      value: 0
      objectReference: {fileID: 0}
    - target: {fileID: 4929873830278897780, guid: 4919b22a90828ae4c9bf2ebef120548b, type: 3}
      propertyPath: m_LocalEulerAnglesHint.z
      value: 0
      objectReference: {fileID: 0}
    m_RemovedComponents: []
  m_SourcePrefab: {fileID: 100100000, guid: 4919b22a90828ae4c9bf2ebef120548b, type: 3}
--- !u!1 &7343368291498003163 stripped
GameObject:
  m_CorrespondingSourceObject: {fileID: 1157647942188618083, guid: 4919b22a90828ae4c9bf2ebef120548b, type: 3}
  m_PrefabInstance: {fileID: 8500588442022206392}
  m_PrefabAsset: {fileID: 0}
--- !u!4 &3571994452178435020 stripped
Transform:
  m_CorrespondingSourceObject: {fileID: 4929873830278897780, guid: 4919b22a90828ae4c9bf2ebef120548b, type: 3}
  m_PrefabInstance: {fileID: 8500588442022206392}
  m_PrefabAsset: {fileID: 0}
--- !u!114 &7483574670679254202
MonoBehaviour:
  m_ObjectHideFlags: 0
  m_CorrespondingSourceObject: {fileID: 0}
  m_PrefabInstance: {fileID: 0}
  m_PrefabAsset: {fileID: 0}
  m_GameObject: {fileID: 0}
  m_Enabled: 1
  m_EditorHideFlags: 0
  m_Script: {fileID: 12395, guid: 0000000000000000e000000000000000, type: 0}
  m_Name: Palette Settings
  m_EditorClassIdentifier: 
  cellSizing: 0
  m_TransparencySortMode: 0
  m_TransparencySortAxis: {x: 0, y: 0, z: 1}
